{
  "success":true,
  "transaction":{
    "id":"qyts771q",
    "status":"authorized",
    "type":"sale",
    "currencyIsoCode":"USD",
    "amount":"12.00",
    "merchantAccountId":"mtrdesign",
    "subMerchantAccountId":null,
    "masterMerchantAccountId":null,
    "orderId":null,
    "createdAt":{
      "date":"2019-09-14 10:37:35.000000",
      "timezone_type":3,
      "timezone":"UTC"
    },
    "updatedAt":{
      "date":"2019-09-14 10:37:35.000000",
      "timezone_type":3,
      "timezone":"UTC"
    },
    "customer":{
      "id":"277320079",
      "firstName":"Alex",
      "lastName":"Kolev",
      "company":null,
      "email":"user@mtr-design.com",
      "website":null,
      "phone":"+1234567890",
      "fax":null,
      "globalId":"Y3VzdG9tZXJfMjc3MzIwMDc5"
    },
    "billing":{
      "id":null,
      "firstName":null,
      "lastName":null,
      "company":null,
      "streetAddress":null,
      "extendedAddress":null,
      "locality":null,
      "region":null,
      "postalCode":null,
      "countryName":null,
      "countryCodeAlpha2":null,
      "countryCodeAlpha3":null,
      "countryCodeNumeric":null
    },
    "refundId":null,
    "refundIds":[

    ],
    "refundedTransactionId":null,
    "partialSettlementTransactionIds":[

    ],
    "authorizedTransactionId":null,
    "settlementBatchId":null,
    "shipping":{
      "id":null,
      "firstName":null,
      "lastName":null,
      "company":null,
      "streetAddress":null,
      "extendedAddress":null,
      "locality":null,
      "region":null,
      "postalCode":null,
      "countryName":null,
      "countryCodeAlpha2":null,
      "countryCodeAlpha3":null,
      "countryCodeNumeric":null
    },
    "customFields":null,
    "avsErrorResponseCode":null,
    "avsPostalCodeResponseCode":"I",
    "avsStreetAddressResponseCode":"I",
    "cvvResponseCode":"I",
    "gatewayRejectionReason":null,
    "processorAuthorizationCode":"12RHKF",
    "processorResponseCode":"1000",
    "processorResponseText":"Approved",
    "additionalProcessorResponse":null,
    "voiceReferralNumber":null,
    "purchaseOrderNumber":null,
    "taxAmount":null,
    "taxExempt":false,
    "creditCard":{
      "token":"3r7grv",
      "bin":"424242",
      "last4":"4242",
      "cardType":"Visa",
      "expirationMonth":"02",
      "expirationYear":"2022",
      "customerLocation":"US",
      "cardholderName":null,
      "imageUrl":"https:\/\/assets.braintreegateway.com\/payment_method_logo\/visa.png?environment=sandbox",
      "prepaid":"Unknown",
      "healthcare":"Unknown",
      "debit":"Unknown",
      "durbinRegulated":"Unknown",
      "commercial":"Unknown",
      "payroll":"Unknown",
      "issuingBank":"Unknown",
      "countryOfIssuance":"Unknown",
      "productId":"Unknown",
      "globalId":"cGF5bWVudG1ldGhvZF9jY18zcjdncnY",
      "accountType":null,
      "uniqueNumberIdentifier":"66be32451c73ba1e445903ffac1414c1",
      "venmoSdk":false
    },
    "statusHistory":[
      {

      }
    ],
    "planId":null,
    "subscriptionId":null,
    "subscription":{
      "billingPeriodEndDate":null,
      "billingPeriodStartDate":null
    },
    "addOns":[

    ],
    "discounts":[

    ],
    "descriptor":{

    },
    "recurring":false,
    "channel":null,
    "serviceFeeAmount":null,
    "escrowStatus":null,
    "disbursementDetails":{

    },
    "disputes":[

    ],
    "authorizationAdjustments":[

    ],
    "paymentInstrumentType":"credit_card",
    "processorSettlementResponseCode":null,
    "processorSettlementResponseText":null,
    "networkResponseCode":"XX",
    "networkResponseText":"sample network response text",
    "threeDSecureInfo":null,
    "shipsFromPostalCode":null,
    "shippingAmount":null,
    "discountAmount":null,
    "networkTransactionId":"020190914103735",
    "processorResponseType":"approved",
    "authorizationExpiresAt":{
      "date":"2019-09-21 10:37:35.000000",
      "timezone_type":3,
      "timezone":"UTC"
    },
    "refundGlobalIds":[

    ],
    "partialSettlementTransactionGlobalIds":[

    ],
    "refundedTransactionGlobalId":null,
    "authorizedTransactionGlobalId":null,
    "globalId":"dHJhbnNhY3Rpb25fcXl0czc3MXE",
    "creditCardDetails":{

    },
    "customerDetails":{

    },
    "billingDetails":{

    },
    "shippingDetails":{

    },
    "subscriptionDetails":{

    }
  }
}